…
```
## See spec(...) for full column specifications.
```

```r
collisions_select <- select(collisions_read, NO_SEQ_COLL, DT_ACCDN, HR_ACCDN, everything()) #permet de mettre en valeur les variables permettant de répondre à la question
collisions_select
```

```
## # A tibble: 171,271 x 68
##    NO_SEQ_COLL DT_ACCDN   HR_ACCDN JR_SEMN_ACCDN CD_MUNCP NO_CIVIQ_ACCDN
##    <chr>       <date>     <chr>    <chr>            <dbl>          <dbl>
##  1 SPVM _ 201~ 2012-02-01 Non pré~ ME               66102           3501
##  2 SPVM _ 201~ 2012-06-02 15:00:0~ SA               66023             NA
##  3 SPVM _ 201~ 2012-06-28 08:00:0~ JE               66023             NA
##  4 SPVM _ 201~ 2012-07-11 09:00:0~ ME               66023             NA
##  5 SPVM _ 201~ 2012-01-02 Non pré~ LU               66023           4849
##  6 SPVM _ 201~ 2012-01-02 14:00:0~ LU               66023             NA
##  7 SPVM _ 201~ 2012-01-03 12:00:0~ MA               66023          14665
##  8 SPVM _ 201~ 2012-01-02 14:00:0~ LU               66023          16760
##  9 SPVM _ 201~ 2012-01-03 09:00:0~ MA               66023           4931
## 10 SPVM _ 201~ 2012-01-03 Non pré~ MA               66023             NA
## # ... with 171,261 more rows, and 62 more variables:
## #   SFX_NO_CIVQ_ACCDN <chr>, BORNE_KM_ACCDN <dbl>, RUE_ACCDN <chr>,
## #   TP_REPRR_ACCDN <dbl>, ACCDN_PRES_DE <chr>, NB_METRE_DIST_ACCD <dbl>,
## #   CD_GENRE_ACCDN <dbl>, CD_SIT_PRTCE_ACCDN <dbl>, CD_ETAT_SURFC <dbl>,
## #   CD_ECLRM <dbl>, CD_ENVRN_ACCDN <dbl>, NO_ROUTE <dbl>,
## #   CD_CATEG_ROUTE <dbl>, CD_ETAT_CHASS <dbl>, CD_ASPCT_ROUTE <dbl>,
## #   CD_LOCLN_ACCDN <dbl>, CD_POSI_ACCDN <dbl>, CD_CONFG_ROUTE <dbl>,
## #   CD_ZON_TRAVX_ROUTR <dbl>, CD_PNT_CDRNL_ROUTE <chr>,
## #   CD_PNT_CDRNL_REPRR <chr>, CD_COND_METEO <dbl>,
…
